sem3/CA/7endecoder/bijayencoder.vcd
$date
  Wed Jan 16 19:13:40 2019
$end
$version
  GHDL v0
$end
$timescale
  1 fs
$end
$var reg 8 ! x[7:0] $end
$var reg 3 " y[2:0] $end
$scope module bijay $end
$var reg 8 # x[7:0] $end
$var reg 3 $ y[2:0] $end
$upscope $end
$enddefinitions $end
#0
b00000001 !
b000 "
b00000001 #
b000 $
#1000000
b10001010 !
bXXX "
b10001010 #
bXXX $
#2000000
b00000010 !
b001 "
b00000010 #
b001 $
#3000000
b00000100 !
b010 "
b00000100 #
b010 $
#4000000
b00001000 !
b011 "
b00001000 #
b011 $
#5000000
b00010000 !
b100 "
b00010000 #
b100 $
#6000000
b00100000 !
b101 "
b00100000 #
b101 $
#7000000
b01000000 !
b110 "
b01000000 #
b110 $
#8000000
b10000000 !
b111 "
b10000000 #
b111 $
