sem3/CA/7endecoder/mux/bijaymux.vcd
$date
  Tue Jan 22 18:48:21 2019
$end
$version
  GHDL v0
$end
$timescale
  1 fs
$end
$var reg 8 ! x[7:0] $end
$var reg 3 " s[2:0] $end
$var reg 1 # cout $end
$scope module bijay $end
$var reg 8 $ x[7:0] $end
$var reg 3 % s[2:0] $end
$var reg 1 & cout $end
$upscope $end
$enddefinitions $end
#0
b01010101 !
b000 "
1#
b01010101 $
b000 %
1&
#1000000
b001 "
0#
b001 %
0&
#2000000
b010 "
1#
b010 %
1&
#3000000
b011 "
0#
b011 %
0&
#4000000
b100 "
1#
b100 %
1&
#5000000
b101 "
0#
b101 %
0&
#6000000
b110 "
1#
b110 %
1&
#7000000
b111 "
0#
b111 %
0&
